3 Introducción a tidyverse – Epidemiología: Nivel Avanzado
…
3.5.4 Función select()

La función select() permite elegir columnas específicas de un conjunto de datos, devolviendo una versión “recortada por columnas” del mismo.

A continuación, exploramos algunas formas útiles de seleccionar variables:

Seleccionar todas las variables excepto pob:

datos |>
  select(-pob)

# A tibble: 48 × 3
   jurisdiccion   año casos
   <chr>        <dbl> <dbl>
 1 Buenos Aires  2015  1513
 2 Buenos Aires  2016   957
 3 CABA          2015   901
 4 CABA          2016   427
 5 Catamarca     2015    69
 6 Catamarca     2016    51
 7 Chaco         2015    15
 8 Chaco         2016     9
 9 Chubut        2015   110
10 Chubut        2016    89
# ℹ 38 more rows

Otra forma para el mismo resultado anterior (mediante el operador rango :):

datos |>
  select(jurisdiccion:casos)

# A tibble: 48 × 3
   jurisdiccion   año casos
   <chr>        <dbl> <dbl>
 1 Buenos Aires  2015  1513
 2 Buenos Aires  2016   957
 3 CABA          2015   901
 4 CABA          2016   427
 5 Catamarca     2015    69
 6 Catamarca     2016    51
 7 Chaco         2015    15
 8 Chaco         2016     9
 9 Chubut        2015   110
10 Chubut        2016    89
# ℹ 38 more rows

Seleccionar solamente las variables jurisdiccion y casos:

datos |>
  select(jurisdiccion, casos)

# A tibble: 48 × 2
   jurisdiccion casos
   <chr>        <dbl>
 1 Buenos Aires  1513
 2 Buenos Aires   957
 3 CABA           901
 4 CABA           427
 5 Catamarca       69
 6 Catamarca       51
 7 Chaco           15
 8 Chaco            9
 9 Chubut         110
10 Chubut          89
# ℹ 38 more rows

Lo mismo que el ejemplo anterior, pero usando la posición de las columnas:

datos |>
  select(1, 3)

# A tibble: 48 × 2
   jurisdiccion casos
   <chr>        <dbl>
 1 Buenos Aires  1513
 2 Buenos Aires   957
 3 CABA           901
 4 CABA           427
 5 Catamarca       69
 6 Catamarca       51
 7 Chaco           15
 8 Chaco            9
 9 Chubut         110
10 Chubut          89
# ℹ 38 more rows

Mover la variable año al inicio y mantener todas las demás:

datos |>
  select("año", everything())

# A tibble: 48 × 4
     año jurisdiccion casos      pob
   <dbl> <chr>        <dbl>    <dbl>
 1  2015 Buenos Aires  1513 16626374
 2  2016 Buenos Aires   957 16789474
 3  2015 CABA           901  3054237
 4  2016 CABA           427  3050000
 5  2015 Catamarca       69   396552
 6  2016 Catamarca       51   401575
 7  2015 Chaco           15  1153846
 8  2016 Chaco            9  1125000
 9  2015 Chubut         110   567010
10  2016 Chubut          89   577922
# ℹ 38 more rows
…
where(): aplica una función a todas las variables y selecciona aquellas para las cuales la función regresa TRUE (por ejemplo: is.numeric() para seleccionar todas las variables numéricas).

3.5.5 Función rename()

La función rename() puede considerarse una extensión de select(). Si bien select() también permite renombrar variables, no resulta muy útil para este fin, ya que descarta todas las variables que no se mencionan explícitamente.

En cambio, rename() permite cambiar el nombre de una o más variables sin eliminar las demás. Solo se modifican los nombres indicados, y el resto del conjunto de datos permanece sin cambios.

Ejemplo: renombrar la variable pob como población:

datos |>
  rename("población" = pob)

# A tibble: 48 × 4
   jurisdiccion   año casos población
   <chr>        <dbl> <dbl>     <dbl>
 1 Buenos Aires  2015  1513  16626374
 2 Buenos Aires  2016   957  16789474
 3 CABA          2015   901   3054237
 4 CABA          2016   427   3050000
 5 Catamarca     2015    69    396552
 6 Catamarca     2016    51    401575
 7 Chaco         2015    15   1153846
 8 Chaco         2016     9   1125000
 9 Chubut        2015   110    567010
10 Chubut        2016    89    577922
# ℹ 38 more rows
…
Por último, podemos usar xor() para seleccionar observaciones que cumplan solo una de las condiciones, pero no ambas. Por ejemplo, el siguiente filtro selecciona registros donde el año sea 2016 ó los casos sean mayores a 200, pero no ambos al mismo tiempo (es decir que no se den ambos en TRUE):

datos |>
  filter(xor(año == "2016", casos > 200))

# A tibble: 25 × 4
   jurisdiccion   año casos      pob
   <chr>        <dbl> <dbl>    <dbl>
 1 Buenos Aires  2015  1513 16626374
 2 CABA          2015   901  3054237
 3 Catamarca     2016    51   401575
 4 Chaco         2016     9  1125000
 5 Chubut        2016    89   577922
 6 Cordoba       2015   468  3572519
 7 Corrientes    2016    99  1076087
 8 Entre Rios    2016   109  1329268
 9 Formosa       2016    60   582524
10 Jujuy         2016   133   734807
# ℹ 15 more rows

3.5.7 Función arrange()

La función arrange() se utiliza para ordenar las filas de un conjunto de datos de acuerdo a una o varias columnas/variables. Por defecto, el ordenamiento es ascendente alfanumérico.

Ordenamos la tabla por la variable pob (forma ascendente predeterminada):

datos |>
  arrange(pob)

# A tibble: 48 × 4
   jurisdiccion       año casos    pob
   <chr>            <dbl> <dbl>  <dbl>
 1 Tierra del Fuego  2015    36 152542
 2 Tierra del Fuego  2016    34 156682
 3 Santa Cruz        2015    65 320197
 4 Santa Cruz        2016    59 329609
 5 La Pampa          2015    57 343373
 6 La Pampa          2016    67 345361
 7 La Rioja          2015    41 369369
 8 La Rioja          2016     6 375000
 9 Catamarca         2015    69 396552
10 Catamarca         2016    51 401575
# ℹ 38 more rows

Para ordenar en forma descendente podemos utilizar desc() dentro de los argumentos de arrange():

datos |>
  arrange(desc(pob))

# A tibble: 48 × 4
   jurisdiccion   año casos      pob
   <chr>        <dbl> <dbl>    <dbl>
 1 Buenos Aires  2016   957 16789474
 2 Buenos Aires  2015  1513 16626374
 3 Cordoba       2016   368  3607843
 4 Cordoba       2015   468  3572519
 5 Santa Fe      2016   170  3400000
 6 Santa Fe      2015   301  3382022
 7 CABA          2015   901  3054237
 8 CABA          2016   427  3050000
 9 Mendoza       2016   254  1909774
10 Mendoza       2015   316  1880952
# ℹ 38 more rows

Podemos combinar ordenamientos. Por ejemplo, en forma alfabética ascendente para jusrisdiccion y luego numérica descendente para casos:

datos |>
  arrange(jurisdiccion, desc(casos))

# A tibble: 48 × 4
   jurisdiccion   año casos      pob
   <chr>        <dbl> <dbl>    <dbl>
 1 Buenos Aires  2015  1513 16626374
 2 Buenos Aires  2016   957 16789474
 3 CABA          2015   901  3054237
 4 CABA          2016   427  3050000
 5 Catamarca     2015    69   396552
 6 Catamarca     2016    51   401575
 7 Chaco         2015    15  1153846
 8 Chaco         2016     9  1125000
 9 Chubut        2015   110   567010
10 Chubut        2016    89   577922
# ℹ 38 more rows

3.5.8 Función mutate()

Esta función nos permite transformar variables dentro de un conjunto de datos. A menudo tendremos la necesidad de modificar variables existentes o crear nuevas variables a partir de las ya disponibles. La función mutate() nos ofrece una forma clara y eficiente de realizar este tipo de operaciones.

Por ejemplo, podríamos querer calcular tasas crudas para cada jurisdicción y año, en función del número de casos y de la población total:

datos |>
  mutate(
    tasa = casos / pob * 100000
  )

# A tibble: 48 × 5
   jurisdiccion   año casos      pob  tasa
   <chr>        <dbl> <dbl>    <dbl> <dbl>
 1 Buenos Aires  2015  1513 16626374  9.10
 2 Buenos Aires  2016   957 16789474  5.70
 3 CABA          2015   901  3054237 29.5 
 4 CABA          2016   427  3050000 14   
 5 Catamarca     2015    69   396552 17.4 
 6 Catamarca     2016    51   401575 12.7 
 7 Chaco         2015    15  1153846  1.30
 8 Chaco         2016     9  1125000  0.8 
 9 Chubut        2015   110   567010 19.4 
10 Chubut        2016    89   577922 15.4 
# ℹ 38 more rows

En este caso, mutate() calcula la tasa cruda por 100.000 habitantes e incorpora una nueva variable (tasa) con los resultados correspondientes a cada observación.

También se pueden construir múltiples variables en la misma expresión, solamente separadas por comas:

datos |>
  mutate(
    tasaxcien_mil = casos / pob * 100000,
    tasaxdiez_mil = casos / pob * 10000
  )

# A tibble: 48 × 6
   jurisdiccion   año casos      pob tasaxcien_mil tasaxdiez_mil
   <chr>        <dbl> <dbl>    <dbl>         <dbl>         <dbl>
 1 Buenos Aires  2015  1513 16626374          9.10         0.910
 2 Buenos Aires  2016   957 16789474          5.70         0.570
 3 CABA          2015   901  3054237         29.5          2.95 
 4 CABA          2016   427  3050000         14            1.4  
 5 Catamarca     2015    69   396552         17.4          1.74 
 6 Catamarca     2016    51   401575         12.7          1.27 
 7 Chaco         2015    15  1153846          1.30         0.130
 8 Chaco         2016     9  1125000          0.8          0.08 
 9 Chubut        2015   110   567010         19.4          1.94 
10 Chubut        2016    89   577922         15.4          1.54 
# ℹ 38 more rows
…
n_distinct(): números de valores distintos en el vector.

3.5.10 Función group_by()

Como mencionamos anteriormente, la función group_by() resulta especialmente útil cuando se utiliza en combinación con summarise(), dado que agrupa un conjunto de filas seleccionado según los valores de una o más columnas antes de aplicar funciones de resumen.

Al aplicar group_by(), el conjunto de datos se estructura internamente en subgrupos definidos por las variables indicadas. Las funciones que se apliquen a continuación (por ejemplo, summarise() o mutate()) se ejecutarán dentro de cada grupo de forma independiente.

Por ejemplo, podemos calcular las tasas crudas por 100.000 habitantes para cada combinación de jurisdicción y año:

datos |>
  group_by(jurisdiccion, año) |>
  summarise(tasa = casos / pob * 100000)

# A tibble: 48 × 3
# Groups:   jurisdiccion [24]
   jurisdiccion   año  tasa
   <chr>        <dbl> <dbl>
 1 Buenos Aires  2015  9.10
 2 Buenos Aires  2016  5.70
 3 CABA          2015 29.5 
 4 CABA          2016 14   
 5 Catamarca     2015 17.4 
 6 Catamarca     2016 12.7 
 7 Chaco         2015  1.30
 8 Chaco         2016  0.8 
 9 Chubut        2015 19.4 
10 Chubut        2016 15.4 
# ℹ 38 more rows

En la mayoría de estos ejemplos, la salida es directa, es decir, no construimos nuevos objetos. Sin embargo, en muchas situaciones vamos a necesitar conservar los resultados obtenidos, asignándolos a un nuevo objeto.

Además, si en algún momento aplicamos group_by() y luego queremos continuar trabajando con los datos sin agrupamientos, podemos utilizar la función ungroup(), que elimina la estructura de agrupamiento:

datos |>
  group_by(jurisdiccion, año) |>
  summarise(tasa = casos / pob * 100000) |>
  ungroup()

# A tibble: 48 × 3
   jurisdiccion   año  tasa
   <chr>        <dbl> <dbl>
 1 Buenos Aires  2015  9.10
 2 Buenos Aires  2016  5.70
 3 CABA          2015 29.5 
 4 CABA          2016 14   
 5 Catamarca     2015 17.4 
 6 Catamarca     2016 12.7 
 7 Chaco         2015  1.30
 8 Chaco         2016  0.8 
 9 Chubut        2015 19.4 
10 Chubut        2016 15.4 
# ℹ 38 more rows
…
Una buena práctica para construir este tipo de código es escribir cada paso de la operación en una línea separada. Esto no solo mejora la legibilidad, sino que facilita la identificación de errores o la modificación de pasos específicos.

Este ejemplo muestra claramente el poder y la claridad que se logran al combinar funciones como group_by(), summarise(), filter() y arrange() en una misma operación fluida y coherente.

3.5.12 Función count()

Esta función permite contar rápidamente los valores únicos de una o más variables en un conjunto de datos. Es especialmente útil para crear tablas de frecuencias absolutas, que posteriormente pueden ser usadas para calcular frecuencias relativas.

Un ejemplo básico de su uso es contar las observaciones por cada valor único de la variable jurisdiccion en el conjunto de datos:

datos |>
  count(jurisdiccion)

# A tibble: 24 × 2
   jurisdiccion     n
   <chr>        <int>
 1 Buenos Aires     2
 2 CABA             2
 3 Catamarca        2
 4 Chaco            2
 5 Chubut           2
 6 Cordoba          2
 7 Corrientes       2
 8 Entre Rios       2
 9 Formosa          2
10 Jujuy            2
# ℹ 14 more rows
…
